 Reputation
 (Within )    No of Users
------ 	 -------------
0000 -- 1000 				 2157
1000 -- 2000 				 175
2000 -- 3000 				 75
3000 -- 4000 				 33
4000 -- 5000 				 27
5000 -- 6000 				 21
6000 -- 7000 				 10
7000 -- 8000 				 17
8000 -- 9000 				 12
9000 -- 10000 				 13
10000 -- 11000 				 6
11000 -- 12000 				 7
12000 -- 13000 				 3
13000 -- 14000 				 8
14000 -- 15000 				 5
15000 -- 16000 				 4
16000 -- 17000 				 3
17000 -- 18000 				 3
18000 -- 19000 				 1
19000 -- 20000 				 2
20000 -- 21000 				 2
21000 -- 22000 				 1
22000 -- 23000 				 4
23000 -- 24000 				 3
24000 -- 25000 				 0
25000 -- 26000 				 2
26000 -- 27000 				 0
27000 -- 28000 				 1
28000 -- 29000 				 1
29000 -- 30000 				 0
30000 -- 31000 				 4
31000 -- 32000 				 0
32000 -- 33000 				 0
33000 -- 34000 				 1
34000 -- 35000 				 0
35000 -- 36000 				 0
36000 -- 37000 				 1
37000 -- 38000 				 0
38000 -- 39000 				 1
39000 -- 40000 				 0
40000 -- 41000 				 0
41000 -- 42000 				 2
42000 -- 43000 				 0
43000 -- 44000 				 0
44000 -- 45000 				 0
45000 -- 46000 				 0
46000 -- 47000 				 1
47000 -- 48000 				 0
48000 -- 49000 				 3
49000 -- 50000 				 0
50000 -- 51000 				 0
51000 -- 52000 				 0
52000 -- 53000 				 1
53000 -- 54000 				 0
54000 -- 55000 				 0
55000 -- 56000 				 0
56000 -- 57000 				 1
57000 -- 58000 				 1
58000 -- 59000 				 1
59000 -- 60000 				 0
60000 -- 61000 				 0
61000 -- 62000 				 1
62000 -- 63000 				 1
63000 -- 64000 				 0
64000 -- 65000 				 0
65000 -- 66000 				 1
66000 -- 67000 				 1
67000 -- 68000 				 1
68000 -- 69000 				 0
69000 -- 70000 				 0
70000 -- 71000 				 0
71000 -- 72000 				 0
72000 -- 73000 				 1
73000 -- 74000 				 2
74000 -- 75000 				 0
75000 -- 76000 				 1
76000 -- 77000 				 0
77000 -- 78000 				 0
78000 -- 79000 				 2
79000 -- 80000 				 0
80000 -- 81000 				 1
81000 -- 82000 				 0
82000 -- 83000 				 1
83000 -- 84000 				 0
84000 -- 85000 				 0
85000 -- 86000 				 0
86000 -- 87000 				 0
87000 -- 88000 				 0
88000 -- 89000 				 0
89000 -- 90000 				 0
90000 -- 91000 				 0
91000 -- 92000 				 0
92000 -- 93000 				 0
93000 -- 94000 				 0
94000 -- 95000 				 1
95000 -- 96000 				 0
96000 -- 97000 				 1
97000 -- 98000 				 0
98000 -- 99000 				 0
99000 -- 100000 				 0
Above 100000 				 14