,Tags in Questions,Frequency
0,blockchain,2416
1,ethereum,2132
2,solidity,1109
3,hyperledger-fabric,771
4,hyperledger,703
5,smartcontracts,511
6,web3,470
7,javascript,364
8,web3js,350
9,truffle,349
10,node.js,332
11,bitcoin,271
12,hyperledger-composer,251
13,go-ethereum,206
14,geth,152
15,ibm-blockchain,140
16,python,134
17,java,121
18,remix,99
19,ibm-cloud,90
20,go,85
21,metamask,85
22,corda,80
23,reactjs,76
24,php,74
25,erc20,73
26,npm,72
27,docker,71
28,web3-java,65
29,cryptocurrency,58
30,json,52
31,blockchain.info-api,52
32,ether,50
33,contract,49
34,c#,44
35,cryptography,42
36,transactions,42
37,android,42
38,api,39
39,quorum,39
40,azure,37
41,consensus,37
42,mining,36
43,hyperledger-sawtooth,35
44,token,32
45,ubuntu,31
46,docker-compose,28
47,consensys-truffle,27
48,bitcoind,26
49,p2p,26
50,ipfs,26
51,python-3.x,25
52,hash,23
53,webpack,21
54,express,21
55,c++,21
56,html,20
57,rpc,20
58,json-rpc,19
59,database,19
60,arrays,18
61,testing,18
62,amazon-web-services,18
63,mongodb,17
64,angular,17
65,azure-blockchain-workbench,17
66,ios,16
67,npm-install,16
68,parity-io,16
69,linux,15
70,ruby,15
71,wallet,15
72,open-zeppelin,15
73,decentralized-applications,15
74,events,14
75,bigchaindb,14
76,unit-testing,14
77,parity,14
78,hyperledger-fabric-ca,14
79,eos,14
80,mocha,13
81,macos,13
82,git,13
83,typescript,13
84,tendermint,13
85,abi,13
86,evm,13
87,windows,13
88,curl,12
89,encryption,12
90,ruby-on-rails,12
91,peer,12
92,networking,12
93,promise,12
94,merkle-tree,12
95,algorithm,11
96,rest,11
97,meteor,11
98,gas,11
99,django,11
100,ico,11
101,nodes,11
102,jquery,10
103,websocket,10
104,distributed,10
105,bitcoin-testnet,10
106,github,10
107,amazon-ec2,10
108,swift,10
109,async-await,10
110,mysql,9
111,callback,9
112,embark,9
113,private-key,9
114,bash,9
115,security,9
116,powershell,9
117,distributed-computing,9
118,laravel,9
119,spring-boot,9
120,nbitcoin,9
121,web3swift,9
122,payment,8
123,hex,8
124,pip,8
125,block,8
126,react-native,8
127,coinbase-api,8
128,function,8
129,mapping,8
130,string,8
131,kotlin,8
132,couchdb,8
133,struct,7
134,post,7
135,sha256,7
136,digital-signature,7
137,storage,7
138,deployment,7
139,eris,7
140,private-network,7
141,iot,7
142,distributed-apps,7
143,asynchronous,7
144,ganache,7
145,visual-studio-code,7
146,kaleido,7
147,stellar,6
148,build,6
149,encoding,6
150,angularjs,6
151,.net,6
152,public-key,6
153,makefile,6
154,bitcoinj,6
155,gpu,6
156,migrate,6
157,swarm,6
158,private,6
159,distributed-system,6
160,data-structures,6
161,web,6
162,litecoin,6
163,performance,6
164,hyperledger-explorer,6
165,r,5
166,protocol-buffers,5
167,grpc,5
168,python-2.7,5
169,heroku,5
170,transfer,5
171,compilation,5
172,gradle,5
173,android-studio,5
174,synchronization,5
175,ethernet,5
176,acl,5
177,cloud,5
178,trezor,5
179,intellij-idea,5
180,immutability,5
181,firebase,5
182,es6-promise,5
183,dependencies,5
184,etherscan,5
185,aion,5
186,sha,4
187,dht,4
188,verification,4
189,console,4
190,request,4
191,centos,4
192,postman,4
193,chain,4
194,oop,4
195,terminal,4
196,ca,4
197,compiler-errors,4
198,directed-acyclic-graphs,4
199,cmake,4
200,validation,4
201,react-redux,4
202,yarnpkg,4
203,virtual-machine,4
204,rust,4
205,bitcore,4
206,spring,4
207,automated-tests,4
208,balance,4
209,bytecode,4
210,leveldb,4
211,network-programming,4
212,sql,4
213,node-modules,4
214,ripple,4
215,ledger-nano-s,4
216,math,4
217,ubuntu-16.04,4
218,debugging,4
219,constructor,4
220,zcash,4
221,amazon-cloudformation,4
222,google-bigquery,4
223,elliptic-curve,4
224,steemit,4
225,nginx,4
226,keystore,4
227,authentication,3
228,cors,3
229,class,3
230,ionic-framework,3
231,module,3
232,installation,3
233,asp.net,3
234,contracts,3
235,poloniex,3
236,docker-toolbox,3
237,port,3
238,call,3
239,sign,3
240,keccak,3
241,graalvm,3
242,requirejs,3
243,watson-iot,3
244,currency,3
245,maven,3
246,account,3
247,visual-studio,3
248,xcode,3
249,install,3
250,postgresql,3
251,multithreading,3
252,intel,3
253,vue.js,3
254,medical,3
255,http,3
256,docker-swarm,3
257,linked-list,3
258,fork,3
259,openzeppelyn,3
260,dafny,3
261,list,3
262,types,3
263,cmd,3
264,interface,3
265,h2,3
266,shell,3
267,command-line-interface,3
268,babeljs,3
269,vagrant,3
270,scala,3
271,get,3
272,protocols,3
273,hardware-wallet,3
274,parsing,3
275,google-chrome-extension,3
276,fault-tolerance,3
277,chai,3
278,google-cloud-functions,3
279,kubernetes,3
280,user-interface,3
281,yaml,3
282,revert,3
283,raft,3
284,windows-10,3
285,dash,3
286,nem,3
287,mobile,3
288,sails.js,3
289,https,3
290,next.js,3
291,inheritance,3
292,dart,3
293,signature,3
294,node-gyp,3
295,command-line,3
296,frontend,3
297,clique,3
298,drizzle,3
299,decimal,3
300,axios,3
301,vb.net,2
302,ajax,2
303,hashtable,2
304,payment-gateway,2
305,dynamic,2
306,c,2
307,operators,2
308,browserify,2
309,logging,2
310,cloudfoundry,2
311,http-status-code-404,2
312,numbers,2
313,open-source,2
314,twitter-bootstrap,2
315,progress-bar,2
316,hadoop,2
317,arduino,2
318,video-streaming,2
319,namecoin,2
320,bigdata,2
321,haskell,2
322,functional-programming,2
323,foreach,2
324,firefox,2
325,socket.io,2
326,importerror,2
327,webpack-dev-server,2
328,vuejs2,2
329,distributed-database,2
330,visual-studio-2015,2
331,boost,2
332,frameworks,2
333,azure-virtual-machine,2
334,utf-8,2
335,exception,2
336,proxy,2
337,electron,2
338,virtualbox,2
339,e-commerce,2
340,containers,2
341,codeigniter,2
342,codeigniter-3,2
343,state,2
344,migration,2
345,exonum,2
346,scalability,2
347,size,2
348,rxjs,2
349,apache-zeppelin,2
350,paypal,2
351,redux,2
352,datetime,2
353,php-openssl,2
354,accounts,2
355,simulation,2
356,composer-php,2
357,permissions,2
358,rsa,2
359,random,2
360,npm-scripts,2
361,appx,2
362,discourse,2
363,unix,2
364,python-requests,2
365,redhat,2
366,pycrypto,2
367,azure-keyvault,2
368,apache-kafka,2
369,linuxmint,2
370,tcp,2
371,javascript-events,2
372,istanbul,2
373,wordpress,2
374,cryptographic-hash-function,2
375,cocoapods,2
376,nonce,2
377,cardano,2
378,block-cipher,2
379,ide,2
380,graph,2
381,methods,2
382,selenium,2
383,opcode,2
384,vyper,2
385,ethereumclassic,2
386,arguments,2
387,create-react-app,2
388,sha-3,2
389,deterministic,2
390,patricia-trie,2
391,privacy,2
392,sbt,2
393,atomic-swap,2
394,hashlib,2
395,encryption-asymmetric,2
396,calculation,2
397,bouncycastle,2
398,getter,2
399,jupyter-notebook,2
400,redis,2
401,reentrancy,2
402,key-pair,2
403,integration,2
404,vuex,2
405,integration-testing,2
406,initialization,2
407,energy,2
408,xmlhttprequest,2
409,hyperledger-fabric-sdk-go,2
410,arraylist,2
411,tokenize,2
412,semantic-ui,2
413,memory-leaks,2
414,google-app-engine,2
415,multi-agent,2
416,webhooks,2
417,localhost,2
418,firewall,2
419,openssl,2
420,sdk,2
421,blockcypher,2
422,buffer,2
423,google-cloud-platform,2
424,jestjs,2
425,nativescript,2
426,memory,2
427,browser,2
428,asch-development,2
429,asch,2
430,cloudant,2
431,react-native-ios,2
432,cryptojs,2
433,public-key-encryption,2
434,hyperledger-indy,2
435,byte,2
436,aes,2
437,rippled,2
438,html5,2
439,raspberry-pi,2
440,genesis,2
441,azure-active-directory,2
442,nosql,2
443,oraclize,2
444,invoke,2
445,data-management,2
446,lambda,2
447,jsx,2
448,decode,2
449,tron,2
450,substrate,2
451,sidechain-technology,2
452,jsonp,1
453,excel,1
454,vba,1
455,excel-vba,1
456,neo4j,1
457,cypher,1
458,converter,1
459,chromebook,1
460,xfce,1
461,crouton-os,1
462,proof-of-correctness,1
463,debian,1
464,cordova,1
465,cloud9-ide,1
466,pyenv,1
467,httprequest,1
468,command,1
469,line,1
470,ati,1
471,limit,1
472,voting,1
473,voting-system,1
474,crash,1
475,mix,1
476,mappings,1
477,whisper,1
478,sample,1
479,smartcard,1
480,chaining,1
481,expect,1
482,kunstmaan,1
483,unmarshalling,1
484,setuptools,1
485,pytest,1
486,atomicity,1
487,crowdsourcing,1
488,docker-machine,1
489,angular2-services,1
490,whatsapp,1
491,deadlock,1
492,channel,1
493,goroutine,1
494,twitter-bootstrap-3,1
495,function-calls,1
496,mapreduce,1
497,forth,1
498,stack-based,1
499,prompt,1
500,ubuntu-14.04,1
501,format,1
502,diffie-hellman,1
503,ionic2,1
504,test-coverage,1
505,google-chrome,1
506,audio-streaming,1
507,jsoup,1
508,assertion,1
509,rethinkdb-python,1
510,ssl,1
511,azure-cosmosdb,1
512,jruby,1
513,truffleruby,1
514,gambling,1
515,idris,1
516,development-environment,1
517,platform,1
518,implementation,1
519,version-control,1
520,dao,1
521,import,1
522,osgi,1
523,precedence,1
524,order-of-operations,1
525,local-network,1
526,restrictions,1
527,dictionary,1
528,complex-data-types,1
529,serpent,1
530,domain-driven-design,1
531,event-sourcing,1
532,architecture,1
533,vue-component,1
534,decoding,1
535,dynamic-library,1
536,external,1
537,sqlite,1
538,libtool,1
539,libltdl,1
540,homebrew,1
541,cmake-gui,1
542,oauth-2.0,1
543,minify,1
544,server-side,1
545,amazon-s3,1
546,virtualenvwrapper,1
547,ipc,1
548,aurelia,1
549,require,1
550,invocation,1
551,passwords,1
552,titanium,1
553,appcelerator,1
554,azure-iot-hub,1
555,azure-hub,1
556,read-write,1
557,upgrade,1
558,android-8.0-oreo,1
559,bcmath,1
560,gulp,1
561,audit,1
562,accounting,1
563,bots,1
564,telegram,1
565,telegram-bot,1
566,objective-c,1
567,pci-e,1
568,computation,1
569,electronics,1
570,gpuarray,1
571,laravel-5,1
572,audio,1
573,audio-fingerprinting,1
574,chess,1
575,redis-server,1
576,visual-studio-2017,1
577,sshfs,1
578,codeigniter-2,1
579,weblogic12c,1
580,variables,1
581,calculator,1
582,x86,1
583,vanity,1
584,rx-java,1
585,trading,1
586,gdax-api,1
587,kraken.com,1
588,node-fibers,1
589,fauxton,1
590,soapui,1
591,jest,1
592,populus,1
593,abac,1
594,get-headers,1
595,ddos,1
596,raspberry-pi3,1
597,recursion,1
598,json.net,1
599,bitcode,1
600,setstate,1
601,javascriptcore,1
602,varchar,1
603,varbinary,1
604,metadata,1
605,uwp,1
606,constants,1
607,java-security,1
608,cassandra,1
609,visual-c++,1
610,simulator,1
611,ns-3,1
612,rust-cargo,1
613,programming-languages,1
614,puppet,1
615,bitpay,1
616,pouchdb,1
617,qos,1
618,code-translation,1
619,omise,1
620,resources,1
621,hid,1
622,python-3.5,1
623,marble,1
624,dns,1
625,syntax-error,1
626,race-condition,1
627,filenotfoundexception,1
628,neo-crypto,1
629,slack,1
630,provider,1
631,react-apollo,1
632,crystal-lang,1
633,nested,1
634,pandas,1
635,analytics,1
636,tableau,1
637,hyperlink,1
638,modifiers,1
639,plotly-dash,1
640,jwk,1
641,hypervisor,1
642,chart.js,1
643,google-apps-script,1
644,put,1
645,google-sheets-api,1
646,apache-zookeeper,1
647,enums,1
648,batch-file,1
649,selenium-webdriver,1
650,automation,1
651,udp,1
652,python-3.6,1
653,eof,1
654,ember.js,1
655,probability,1
656,docker-stack,1
657,unsupportedoperation,1
658,bazel,1
659,monorepo,1
660,netbeans,1
661,base58,1
662,split,1
663,uint,1
664,observable,1
665,blender,1
666,supercomputers,1
667,stellar.js,1
668,horizon,1
669,bit-manipulation,1
670,bitwise-operators,1
671,conditional,1
672,reward-system,1
673,data-serialization,1
674,network-protocols,1
675,tcp-ip,1
676,confirmation,1
677,data-analysis,1
678,eclipse,1
679,floating-point,1
680,erlang,1
681,fixed-point,1
682,graph-theory,1
683,formula,1
684,login,1
685,julia-lang,1
686,swagger,1
687,swagger-codegen,1
688,openapi,1
689,lodash,1
690,cuda,1
691,opencl,1
692,xpub,1
693,css,1
694,bootstrap-4,1
695,karma-mocha,1
696,unity3d,1
697,gpio,1
698,react-dom,1
699,database-design,1
700,cpu,1
701,knockout.js,1
702,realm,1
703,non-deterministic,1
704,search,1
705,mixing,1
706,regex,1
707,nsregularexpression,1
708,playframework-2.3,1
709,identity-management,1
710,insight,1
711,environment-variables,1
712,apache,1
713,qr-code,1
714,itunesconnect,1
715,interaction,1
716,pgp,1
717,composite-primary-key,1
718,x509certificate,1
719,relational-database,1
720,share,1
721,centos7,1
722,infrastructure,1
723,addeventlistener,1
724,gun,1
725,neblio,1
726,httpresponse,1
727,binary,1
728,number-formatting,1
729,google-chrome-devtools,1
730,anaconda,1
731,replication,1
732,transactional-replication,1
733,conflict,1
734,azure-web-sites,1
735,source-code-protection,1
736,passport-google-oauth,1
737,bc,1
738,nvidia,1
739,android-keystore,1
740,javafx,1
741,fxml,1
742,fxmlloader,1
743,load-testing,1
744,aws-lambda,1
745,client,1
746,command-prompt,1
747,webforms,1
748,appian,1
749,ed25519,1
750,putty,1
751,phantomjs,1
752,typecast-operator,1
753,npm-start,1
754,components,1
755,rendering,1
756,visualization,1
757,finance,1
758,readonly,1
759,underscores,1
760,runnable,1
761,objectinputstream,1
762,objectoutputstream,1
763,storing-data,1
764,invalid-argument,1
765,explorer,1
766,decorator,1
767,angular5,1
768,channels,1
769,null,1
770,biginteger,1
771,store,1
772,package.json,1
773,airdrop,1
774,compiler-construction,1
775,parcel,1
776,parceljs,1
777,fs,1
778,attachment,1
779,sockets,1
780,azure-web-app-service,1
781,microservices,1
782,paxos,1
783,smartmeter,1
784,energysmart,1
785,return-value,1
786,hashcode,1
787,adjacency-list,1
788,user-friendly,1
789,digital-ocean,1
790,doxygen,1
791,fallback,1
792,ecdsa,1
793,message,1
794,qt,1
795,qml,1
796,signing,1
797,pycryptodome,1
798,firefox-addon,1
799,concurrency,1
800,traceback,1
801,identifier,1
802,parsing-error,1
803,stripe-payments,1
804,semantic-ui-react,1
805,html-table,1
806,tether,1
807,packet,1
808,apt,1
809,keycloak,1
810,jvm,1
811,dsl,1
812,plasma,1
813,omisego,1
814,key,1
815,pem,1
816,google-kubernetes-engine,1
817,parent,1
818,angular-dart,1
819,php-curl,1
820,proof,1
821,trace,1
822,financial,1
823,reticulate,1
824,google-compute-engine,1
825,cloud-storage,1
826,traversal,1
827,trie,1
828,nativescript-plugin,1
829,scope,1
830,bind,1
831,receipt,1
832,cucumber,1
833,spring-mvc,1
834,bitcoinlib,1
835,uml,1
836,android-intent,1
837,daap,1
838,access,1
839,glide,1
840,nightwatch.js,1
841,laravel-5.2,1
842,fraud-prevention,1
843,encode,1
844,xrp,1
845,throughput,1
846,scrypt,1
847,django-views,1
848,pow,1
849,video,1
850,inpage.js,1
851,trust,1
852,composition,1
853,configuration,1
854,ubuntu-18.04,1
855,arm,1
856,role-based-access-control,1
857,multidimensional-array,1
858,typeerror,1
859,enoent,1
860,johnny-five,1
861,data-recovery,1
862,lite-server,1
863,symlink,1
864,capstone,1
865,payment-integration,1
866,wcf,1
867,chromium,1
868,puppeteer,1
869,parameters,1
870,queue,1
871,z3,1
872,c++17,1
873,instantiation,1
874,rspec,1
875,lotionjs,1
876,access-control,1
877,cross-origin-read-blocking,1
878,pki,1
879,angular6,1
880,react-state-management,1
881,cgo,1
882,goland,1
883,certificate-authority,1
884,mnemonics,1
885,contact-form,1
886,contact-form-7,1
887,joi,1
888,grammar,1
889,web-deployment,1
890,web-deployment-project,1
891,href,1
892,opcache,1
893,google-bigquery-ml,1
894,ansible,1
895,digital,1
896,attributes,1
897,artificial-intelligence,1
898,atlassian-sourcetree,1
899,certificate,1
900,add,1
901,out-of-memory,1
902,wait,1
903,lightning-network,1
904,pos,1
905,xdr,1
906,heap-memory,1
907,oracle-cloud-infrastructure-classic,1
908,file-upload,1
909,popup,1
910,logistics,1
911,azure-public-ip,1
912,react-router,1
913,node-red,1
914,csr,1
915,dfuse,1
916,mockito,1
917,client-applications,1
918,kernel,1
919,lint,1
920,atom-editor,1
921,deep-learning,1
922,cosmos,1
923,infinite-loop,1
924,sonarqube,1
925,sonarscanner,1
926,policies,1
927,multiple-inheritance,1
928,nuxt.js,1
929,webpack-4,1
930,upnp,1
931,hole-punching,1
932,ice,1
933,ip,1
934,sinon,1
935,c++11,1
936,gemini,1
937,couchdb-futon,1
938,64bit,1
939,ram,1
940,http-status-code-405,1
941,file,1
942,filesize,1
943,bean-validation,1
944,compiler-warnings,1
945,ocaml,1
946,membership,1
947,integrity,1
948,basic-authentication,1
949,self-destruction,1
950,trx,1
951,jni,1
952,graph-algorithm,1
953,ecmascript-6,1
954,google-cloud-firestore,1
955,pact-lang,1
956,quicksort,1
957,azure-template,1
958,azure-marketplace,1
959,flutter,1
960,time,1
961,iota,1
962,svn,1
963,data-synchronization,1
964,sharding,1
965,oracle-cloud-infrastructure,1
966,react-native-android,1
967,tronweb,1
968,key-value,1
969,,1
